simulation/qsim/lab3.msim.vcd
$comment
	File created using the following command:
		vcd file lab3.msim.vcd -direction
$end
$date
	Thu Jun 30 03:02:15 2022
$end
$version
	ModelSim Version 10.6d
$end
$timescale
	1ps
$end

$scope module lab3_vlg_vec_tst $end
$var reg 1 ! A $end
$var reg 1 " B $end
$var reg 1 # Cin $end
$var wire 1 $ Cout $end
$var wire 1 % Sum $end

$scope module i1 $end
$var wire 1 & gnd $end
$var wire 1 ' vcc $end
$var wire 1 ( unknown $end
$var tri1 1 ) devclrn $end
$var tri1 1 * devpor $end
$var tri1 1 + devoe $end
$var wire 1 , Sum~pad_padout $end
$var wire 1 - Sum~padSIMOUT $end
$var wire 1 . Cout~pad_padout $end
$var wire 1 / Cout~padSIMOUT $end
$var wire 1 0 Cin~pad_padout $end
$var wire 1 1 A~pad_padout $end
$var wire 1 2 B~pad_padout $end
$var wire 1 3 ~ALTERA_DATA0~~padout $end
$var wire 1 4 ~ALTERA_DATA0~~ibuf_o $end
$var wire 1 5 B~input_o $end
$var wire 1 6 A~input_o $end
$var wire 1 7 Cin~input_o $end
$var wire 1 8 inst1~combout $end
$var wire 1 9 inst4~combout $end
$upscope $end
$upscope $end
$enddefinitions $end
#0
$dumpvars
0!
0"
0#
0$
0%
0&
1'
x(
1)
1*
1+
z,
z-
z.
z/
z0
z1
z2
z3
z4
05
06
07
08
09
$end
#10000
1#
17
18
1%
#20000
1"
0#
15
07
#30000
1#
17
19
08
1$
0%
#40000
1!
0"
0#
16
05
07
09
18
0$
1%
#50000
1#
17
19
08
1$
0%
#60000
1"
0#
15
07
#70000
1#
17
18
1%
